[
  {
    "_id": "ba776360-88d8-11e8-b0ed-f10d996b1a23",
    "_type": "dashboard",
    "_source": {
      "title": "LoB",
      "hits": 0,
      "description": "Line Of Business Dashboard",
      "panelsJSON": "[{\"embeddableConfig\":{},\"gridData\":{\"h\":14,\"i\":\"1\",\"w\":14,\"x\":0,\"y\":0},\"id\":\"668b16c0-85e0-11e8-866c-2bf975f9eb64\",\"panelIndex\":\"1\",\"type\":\"visualization\",\"version\":\"6.3.1\"},{\"embeddableConfig\":{\"spy\":null,\"vis\":{\"legendOpen\":false}},\"gridData\":{\"h\":14,\"i\":\"2\",\"w\":13,\"x\":14,\"y\":0},\"id\":\"ee861d70-85e2-11e8-866c-2bf975f9eb64\",\"panelIndex\":\"2\",\"type\":\"visualization\",\"version\":\"6.3.1\"},{\"embeddableConfig\":{},\"gridData\":{\"h\":15,\"i\":\"3\",\"w\":24,\"x\":0,\"y\":28},\"id\":\"f936f690-88e4-11e8-b0ed-f10d996b1a23\",\"panelIndex\":\"3\",\"type\":\"visualization\",\"version\":\"6.3.1\"},{\"embeddableConfig\":{\"vis\":{\"legendOpen\":true}},\"gridData\":{\"h\":14,\"i\":\"4\",\"w\":24,\"x\":0,\"y\":14},\"id\":\"6bfec5a0-88e4-11e8-b0ed-f10d996b1a23\",\"panelIndex\":\"4\",\"type\":\"visualization\",\"version\":\"6.3.1\"},{\"embeddableConfig\":{},\"gridData\":{\"h\":14,\"i\":\"6\",\"w\":21,\"x\":27,\"y\":0},\"id\":\"56246e00-88e0-11e8-b0ed-f10d996b1a23\",\"panelIndex\":\"6\",\"type\":\"visualization\",\"version\":\"6.3.1\"},{\"embeddableConfig\":{},\"gridData\":{\"h\":14,\"i\":\"7\",\"w\":24,\"x\":24,\"y\":14},\"id\":\"cfcc8040-88ee-11e8-b0ed-f10d996b1a23\",\"panelIndex\":\"7\",\"type\":\"visualization\",\"version\":\"6.3.1\"},{\"embeddableConfig\":{},\"gridData\":{\"h\":15,\"i\":\"8\",\"w\":24,\"x\":24,\"y\":28},\"id\":\"f0ad7160-88ef-11e8-b0ed-f10d996b1a23\",\"panelIndex\":\"8\",\"type\":\"visualization\",\"version\":\"6.3.1\"}]",
      "optionsJSON": "{\"darkTheme\":false,\"hidePanelTitles\":false,\"useMargins\":true}",
      "version": 1,
      "timeRestore": false,
      "kibanaSavedObjectMeta": {
        "searchSourceJSON": "{\"query\":{\"language\":\"lucene\",\"query\":\"\"},\"filter\":[],\"highlightAll\":true,\"version\":true}"
      }
    },
    "_meta": {
      "savedObjectVersion": 2
    }
  },
  {
    "_id": "56246e00-88e0-11e8-b0ed-f10d996b1a23",
    "_type": "visualization",
    "_source": {
      "title": "Total No. of Offers / LoB Vertical Bars",
      "visState": "{\"title\":\"Total No. of Offers / LoB Vertical Bars\",\"type\":\"histogram\",\"params\":{\"type\":\"histogram\",\"grid\":{\"categoryLines\":true,\"style\":{\"color\":\"#eee\"},\"valueAxis\":\"ValueAxis-1\"},\"categoryAxes\":[{\"id\":\"CategoryAxis-1\",\"type\":\"category\",\"position\":\"bottom\",\"show\":true,\"style\":{},\"scale\":{\"type\":\"linear\"},\"labels\":{\"show\":true,\"truncate\":100,\"rotate\":0,\"filter\":true},\"title\":{}}],\"valueAxes\":[{\"id\":\"ValueAxis-1\",\"name\":\"LeftAxis-1\",\"type\":\"value\",\"position\":\"left\",\"show\":true,\"style\":{},\"scale\":{\"type\":\"linear\",\"mode\":\"normal\"},\"labels\":{\"show\":true,\"rotate\":0,\"filter\":false,\"truncate\":100},\"title\":{\"text\":\"Total No. of Offers\"}},{\"id\":\"ValueAxis-2\",\"name\":\"RightAxis-1\",\"type\":\"value\",\"position\":\"right\",\"show\":true,\"style\":{},\"scale\":{\"type\":\"linear\",\"mode\":\"percentage\"},\"labels\":{\"show\":true,\"rotate\":0,\"filter\":false,\"truncate\":100},\"title\":{\"text\":\"Success Ratio\"}}],\"seriesParams\":[{\"show\":\"true\",\"type\":\"histogram\",\"mode\":\"normal\",\"data\":{\"label\":\"Total No. of Offers\",\"id\":\"1\"},\"valueAxis\":\"ValueAxis-1\",\"drawLinesBetweenPoints\":true,\"showCircles\":true}],\"addTooltip\":true,\"addLegend\":true,\"legendPosition\":\"right\",\"times\":[],\"addTimeMarker\":false,\"orderBucketsBySum\":false},\"aggs\":[{\"id\":\"1\",\"enabled\":true,\"type\":\"count\",\"schema\":\"metric\",\"params\":{\"customLabel\":\"Total No. of Offers\"}},{\"id\":\"2\",\"enabled\":true,\"type\":\"terms\",\"schema\":\"segment\",\"params\":{\"field\":\"Line of Business (LoB)\",\"otherBucket\":false,\"otherBucketLabel\":\"Other\",\"missingBucket\":false,\"missingBucketLabel\":\"Missing\",\"size\":20,\"order\":\"desc\",\"orderBy\":\"1\"}},{\"id\":\"3\",\"enabled\":true,\"type\":\"terms\",\"schema\":\"group\",\"params\":{\"field\":\"Status\",\"otherBucket\":false,\"otherBucketLabel\":\"Other\",\"missingBucket\":false,\"missingBucketLabel\":\"Missing\",\"size\":5,\"order\":\"desc\",\"orderBy\":\"1\"}}]}",
      "uiStateJSON": "{\"vis\":{\"colors\":{\"Proposal submitted to Client/Sales Partner\":\"#58140C\",\"Policy issued\":\"#1F78C1\"}}}",
      "description": "",
      "version": 1,
      "kibanaSavedObjectMeta": {
        "searchSourceJSON": "{\"index\":\"f484e460-88dd-11e8-b0ed-f10d996b1a23\",\"filter\":[{\"meta\":{\"index\":\"f484e460-88dd-11e8-b0ed-f10d996b1a23\",\"type\":\"phrases\",\"key\":\"Status\",\"value\":\"Proposal submitted to Client/Sales Partner, Policy issued\",\"params\":[\"Proposal submitted to Client/Sales Partner\",\"Policy issued\"],\"negate\":false,\"disabled\":false,\"alias\":null},\"query\":{\"bool\":{\"should\":[{\"match_phrase\":{\"Status\":\"Proposal submitted to Client/Sales Partner\"}},{\"match_phrase\":{\"Status\":\"Policy issued\"}}],\"minimum_should_match\":1}},\"$state\":{\"store\":\"appState\"}}],\"query\":{\"query\":\"\",\"language\":\"kuery\"}}"
      }
    },
    "_meta": {
      "savedObjectVersion": 2
    }
  },
  {
    "_id": "cfcc8040-88ee-11e8-b0ed-f10d996b1a23",
    "_type": "visualization",
    "_source": {
      "title": "Total No. of Offers / month",
      "visState": "{\"title\":\"Total No. of Offers / month\",\"type\":\"histogram\",\"params\":{\"type\":\"histogram\",\"grid\":{\"categoryLines\":true,\"style\":{\"color\":\"#eee\"}},\"categoryAxes\":[{\"id\":\"CategoryAxis-1\",\"type\":\"category\",\"position\":\"bottom\",\"show\":true,\"style\":{},\"scale\":{\"type\":\"linear\"},\"labels\":{\"show\":true,\"truncate\":100,\"rotate\":0},\"title\":{}}],\"valueAxes\":[{\"id\":\"ValueAxis-1\",\"name\":\"LeftAxis-1\",\"type\":\"value\",\"position\":\"left\",\"show\":true,\"style\":{},\"scale\":{\"type\":\"linear\",\"mode\":\"normal\"},\"labels\":{\"show\":true,\"rotate\":0,\"filter\":false,\"truncate\":100},\"title\":{\"text\":\"Total No. of Offers\"}},{\"id\":\"ValueAxis-2\",\"name\":\"RightAxis-1\",\"type\":\"value\",\"position\":\"right\",\"show\":true,\"style\":{},\"scale\":{\"type\":\"linear\",\"mode\":\"percentage\"},\"labels\":{\"show\":true,\"rotate\":0,\"filter\":false,\"truncate\":100},\"title\":{\"text\":\"Success Ratio\"}}],\"seriesParams\":[{\"show\":\"true\",\"type\":\"histogram\",\"mode\":\"normal\",\"data\":{\"label\":\"Total No. of Offers\",\"id\":\"1\"},\"valueAxis\":\"ValueAxis-1\",\"drawLinesBetweenPoints\":true,\"showCircles\":true}],\"addTooltip\":true,\"addLegend\":true,\"legendPosition\":\"right\",\"times\":[],\"addTimeMarker\":false,\"orderBucketsBySum\":false},\"aggs\":[{\"id\":\"1\",\"enabled\":true,\"type\":\"count\",\"schema\":\"metric\",\"params\":{\"customLabel\":\"Total No. of Offers\"}},{\"id\":\"2\",\"enabled\":true,\"type\":\"date_histogram\",\"schema\":\"segment\",\"params\":{\"field\":\"Creation Date\",\"interval\":\"M\",\"customInterval\":\"2h\",\"min_doc_count\":1,\"extended_bounds\":{}}},{\"id\":\"3\",\"enabled\":true,\"type\":\"terms\",\"schema\":\"group\",\"params\":{\"field\":\"Status\",\"otherBucket\":false,\"otherBucketLabel\":\"Other\",\"missingBucket\":false,\"missingBucketLabel\":\"Missing\",\"size\":5,\"order\":\"desc\",\"orderBy\":\"1\"}}]}",
      "uiStateJSON": "{}",
      "description": "",
      "version": 1,
      "kibanaSavedObjectMeta": {
        "searchSourceJSON": "{\"index\":\"f484e460-88dd-11e8-b0ed-f10d996b1a23\",\"filter\":[{\"meta\":{\"index\":\"f484e460-88dd-11e8-b0ed-f10d996b1a23\",\"type\":\"phrases\",\"key\":\"Status\",\"value\":\"Proposal submitted to Client/Sales Partner, Policy issued\",\"params\":[\"Proposal submitted to Client/Sales Partner\",\"Policy issued\"],\"negate\":false,\"disabled\":false,\"alias\":null},\"query\":{\"bool\":{\"should\":[{\"match_phrase\":{\"Status\":\"Proposal submitted to Client/Sales Partner\"}},{\"match_phrase\":{\"Status\":\"Policy issued\"}}],\"minimum_should_match\":1}},\"$state\":{\"store\":\"appState\"}}],\"query\":{\"query\":\"\",\"language\":\"kuery\"}}"
      }
    },
    "_meta": {
      "savedObjectVersion": 2
    }
  },
  {
    "_id": "6bfec5a0-88e4-11e8-b0ed-f10d996b1a23",
    "_type": "visualization",
    "_source": {
      "title": "Premium / Month",
      "visState": "{\"title\":\"Premium / Month\",\"type\":\"histogram\",\"params\":{\"addLegend\":true,\"addTimeMarker\":false,\"addTooltip\":true,\"categoryAxes\":[{\"id\":\"CategoryAxis-1\",\"labels\":{\"rotate\":0,\"show\":true,\"truncate\":100},\"position\":\"bottom\",\"scale\":{\"type\":\"linear\"},\"show\":true,\"style\":{},\"title\":{},\"type\":\"category\"}],\"grid\":{\"categoryLines\":true,\"style\":{\"color\":\"#eee\"},\"valueAxis\":\"ValueAxis-1\"},\"legendPosition\":\"right\",\"radiusRatio\":51,\"seriesParams\":[{\"data\":{\"id\":\"1\",\"label\":\"Total Premium\"},\"drawLinesBetweenPoints\":true,\"mode\":\"normal\",\"show\":\"true\",\"showCircles\":true,\"type\":\"histogram\",\"valueAxis\":\"ValueAxis-1\"}],\"times\":[],\"type\":\"histogram\",\"valueAxes\":[{\"id\":\"ValueAxis-1\",\"labels\":{\"filter\":false,\"rotate\":0,\"show\":true,\"truncate\":100},\"name\":\"LeftAxis-1\",\"position\":\"left\",\"scale\":{\"mode\":\"normal\",\"type\":\"linear\"},\"show\":true,\"style\":{},\"title\":{\"text\":\"Total Premium\"},\"type\":\"value\"}]},\"aggs\":[{\"id\":\"1\",\"enabled\":true,\"type\":\"sum\",\"schema\":\"metric\",\"params\":{\"field\":\"Premium\",\"customLabel\":\"Total Premium\"}},{\"id\":\"2\",\"enabled\":true,\"type\":\"date_histogram\",\"schema\":\"segment\",\"params\":{\"field\":\"Creation Date\",\"interval\":\"M\",\"customInterval\":\"2h\",\"min_doc_count\":1,\"extended_bounds\":{}}},{\"id\":\"3\",\"enabled\":true,\"type\":\"terms\",\"schema\":\"group\",\"params\":{\"field\":\"Status\",\"otherBucket\":false,\"otherBucketLabel\":\"Other\",\"missingBucket\":false,\"missingBucketLabel\":\"Missing\",\"size\":5,\"order\":\"desc\",\"orderBy\":\"1\"}}]}",
      "uiStateJSON": "{\"vis\":{\"legendOpen\":true}}",
      "description": "",
      "version": 1,
      "kibanaSavedObjectMeta": {
        "searchSourceJSON": "{\"index\":\"f484e460-88dd-11e8-b0ed-f10d996b1a23\",\"filter\":[{\"meta\":{\"index\":\"f484e460-88dd-11e8-b0ed-f10d996b1a23\",\"type\":\"phrases\",\"key\":\"Status\",\"value\":\"Policy issued, Proposal submitted to Client/Sales Partner\",\"params\":[\"Policy issued\",\"Proposal submitted to Client/Sales Partner\"],\"negate\":false,\"disabled\":false,\"alias\":null},\"query\":{\"bool\":{\"should\":[{\"match_phrase\":{\"Status\":\"Policy issued\"}},{\"match_phrase\":{\"Status\":\"Proposal submitted to Client/Sales Partner\"}}],\"minimum_should_match\":1}},\"$state\":{\"store\":\"appState\"}}],\"query\":{\"query\":\"\",\"language\":\"kuery\"}}"
      }
    },
    "_meta": {
      "savedObjectVersion": 2
    }
  },
  {
    "_id": "f0ad7160-88ef-11e8-b0ed-f10d996b1a23",
    "_type": "visualization",
    "_source": {
      "title": "No. of Offers / LoB / Risk Class - concluded",
      "visState": "{\"title\":\"No. of Offers / LoB / Risk Class - concluded\",\"type\":\"histogram\",\"params\":{\"type\":\"histogram\",\"grid\":{\"categoryLines\":true,\"style\":{\"color\":\"#eee\"},\"valueAxis\":\"ValueAxis-1\"},\"categoryAxes\":[{\"id\":\"CategoryAxis-1\",\"type\":\"category\",\"position\":\"bottom\",\"show\":true,\"style\":{},\"scale\":{\"type\":\"linear\"},\"labels\":{\"show\":true,\"truncate\":100,\"rotate\":0},\"title\":{}}],\"valueAxes\":[{\"id\":\"ValueAxis-1\",\"name\":\"LeftAxis-1\",\"type\":\"value\",\"position\":\"left\",\"show\":true,\"style\":{},\"scale\":{\"type\":\"linear\",\"mode\":\"normal\"},\"labels\":{\"show\":true,\"rotate\":0,\"filter\":false,\"truncate\":100},\"title\":{\"text\":\"Count\"}}],\"seriesParams\":[{\"show\":\"true\",\"type\":\"histogram\",\"mode\":\"stacked\",\"data\":{\"label\":\"Count\",\"id\":\"1\"},\"valueAxis\":\"ValueAxis-1\",\"drawLinesBetweenPoints\":true,\"showCircles\":true}],\"addTooltip\":true,\"addLegend\":true,\"legendPosition\":\"right\",\"times\":[],\"addTimeMarker\":false},\"aggs\":[{\"id\":\"1\",\"enabled\":true,\"type\":\"count\",\"schema\":\"metric\",\"params\":{}},{\"id\":\"2\",\"enabled\":true,\"type\":\"terms\",\"schema\":\"segment\",\"params\":{\"field\":\"Line of Business (LoB)\",\"otherBucket\":false,\"otherBucketLabel\":\"Other\",\"missingBucket\":false,\"missingBucketLabel\":\"Missing\",\"size\":10,\"order\":\"desc\",\"orderBy\":\"1\"}},{\"id\":\"3\",\"enabled\":true,\"type\":\"terms\",\"schema\":\"group\",\"params\":{\"field\":\"Risk Class\",\"otherBucket\":false,\"otherBucketLabel\":\"Other\",\"missingBucket\":false,\"missingBucketLabel\":\"Missing\",\"size\":5,\"order\":\"desc\",\"orderBy\":\"1\"}}]}",
      "uiStateJSON": "{\"vis\":{\"colors\":{\"1\":\"#629E51\",\"2\":\"#B7DBAB\",\"3\":\"#EAB839\",\"4\":\"#F4D598\",\"5\":\"#E24D42\"}}}",
      "description": "",
      "version": 1,
      "kibanaSavedObjectMeta": {
        "searchSourceJSON": "{\"index\":\"f484e460-88dd-11e8-b0ed-f10d996b1a23\",\"filter\":[{\"meta\":{\"index\":\"f484e460-88dd-11e8-b0ed-f10d996b1a23\",\"negate\":false,\"disabled\":false,\"alias\":null,\"type\":\"phrase\",\"key\":\"Status\",\"value\":\"Policy issued\",\"params\":{\"query\":\"Policy issued\",\"type\":\"phrase\"}},\"query\":{\"match\":{\"Status\":{\"query\":\"Policy issued\",\"type\":\"phrase\"}}},\"$state\":{\"store\":\"appState\"}}],\"query\":{\"query\":\"\",\"language\":\"kuery\"}}"
      }
    },
    "_meta": {
      "savedObjectVersion": 2
    }
  },
  {
    "_id": "f936f690-88e4-11e8-b0ed-f10d996b1a23",
    "_type": "visualization",
    "_source": {
      "title": "No. of Offers / LoB / Risk Class",
      "visState": "{\"title\":\"No. of Offers / LoB / Risk Class\",\"type\":\"histogram\",\"params\":{\"type\":\"histogram\",\"grid\":{\"categoryLines\":true,\"style\":{\"color\":\"#eee\"},\"valueAxis\":\"ValueAxis-1\"},\"categoryAxes\":[{\"id\":\"CategoryAxis-1\",\"type\":\"category\",\"position\":\"bottom\",\"show\":true,\"style\":{},\"scale\":{\"type\":\"linear\"},\"labels\":{\"show\":true,\"truncate\":100,\"rotate\":0},\"title\":{}}],\"valueAxes\":[{\"id\":\"ValueAxis-1\",\"name\":\"LeftAxis-1\",\"type\":\"value\",\"position\":\"left\",\"show\":true,\"style\":{},\"scale\":{\"type\":\"linear\",\"mode\":\"normal\"},\"labels\":{\"show\":true,\"rotate\":0,\"filter\":false,\"truncate\":100},\"title\":{\"text\":\"Count\"}}],\"seriesParams\":[{\"show\":\"true\",\"type\":\"histogram\",\"mode\":\"stacked\",\"data\":{\"label\":\"Count\",\"id\":\"1\"},\"valueAxis\":\"ValueAxis-1\",\"drawLinesBetweenPoints\":true,\"showCircles\":true}],\"addTooltip\":true,\"addLegend\":true,\"legendPosition\":\"right\",\"times\":[],\"addTimeMarker\":false},\"aggs\":[{\"id\":\"1\",\"enabled\":true,\"type\":\"count\",\"schema\":\"metric\",\"params\":{}},{\"id\":\"2\",\"enabled\":true,\"type\":\"terms\",\"schema\":\"segment\",\"params\":{\"field\":\"Line of Business (LoB)\",\"otherBucket\":false,\"otherBucketLabel\":\"Other\",\"missingBucket\":false,\"missingBucketLabel\":\"Missing\",\"size\":10,\"order\":\"desc\",\"orderBy\":\"1\"}},{\"id\":\"3\",\"enabled\":true,\"type\":\"terms\",\"schema\":\"group\",\"params\":{\"field\":\"Risk Class\",\"otherBucket\":false,\"otherBucketLabel\":\"Other\",\"missingBucket\":false,\"missingBucketLabel\":\"Missing\",\"size\":5,\"order\":\"desc\",\"orderBy\":\"1\"}}]}",
      "uiStateJSON": "{\"vis\":{\"colors\":{\"1\":\"#629E51\",\"2\":\"#B7DBAB\",\"3\":\"#EAB839\",\"4\":\"#F4D598\",\"5\":\"#E24D42\"}}}",
      "description": "",
      "version": 1,
      "kibanaSavedObjectMeta": {
        "searchSourceJSON": "{\"index\":\"f484e460-88dd-11e8-b0ed-f10d996b1a23\",\"filter\":[],\"query\":{\"query\":\"\",\"language\":\"kuery\"}}"
      }
    },
    "_meta": {
      "savedObjectVersion": 2
    }
  },
  {
    "_id": "668b16c0-85e0-11e8-866c-2bf975f9eb64",
    "_type": "visualization",
    "_source": {
      "title": "Total No. of Offers / LoB",
      "visState": "{\"title\":\"Total No. of Offers / LoB\",\"type\":\"pie\",\"params\":{\"type\":\"pie\",\"addTooltip\":true,\"addLegend\":true,\"legendPosition\":\"right\",\"isDonut\":false,\"labels\":{\"show\":true,\"values\":true,\"last_level\":true,\"truncate\":100}},\"aggs\":[{\"id\":\"1\",\"enabled\":true,\"type\":\"count\",\"schema\":\"metric\",\"params\":{}},{\"id\":\"2\",\"enabled\":true,\"type\":\"terms\",\"schema\":\"segment\",\"params\":{\"field\":\"Line of Business (LoB)\",\"otherBucket\":false,\"otherBucketLabel\":\"Other\",\"missingBucket\":false,\"missingBucketLabel\":\"Missing\",\"size\":30,\"order\":\"desc\",\"orderBy\":\"1\"}}]}",
      "uiStateJSON": "{\"vis\":{\"legendOpen\":false}}",
      "description": "",
      "version": 1,
      "kibanaSavedObjectMeta": {
        "searchSourceJSON": "{\"index\":\"f484e460-88dd-11e8-b0ed-f10d996b1a23\",\"filter\":[{\"meta\":{\"index\":\"f489ac50-85dd-11e8-866c-2bf975f9eb64\",\"negate\":false,\"disabled\":true,\"alias\":null,\"type\":\"exists\",\"key\":\"Line of Business (LoB)\",\"value\":\"exists\"},\"exists\":{\"field\":\"Line of Business (LoB)\"},\"$state\":{\"store\":\"appState\"}}],\"query\":{\"query\":\"\",\"language\":\"lucene\"}}"
      }
    },
    "_meta": {
      "savedObjectVersion": 2
    }
  },
  {
    "_id": "ee861d70-85e2-11e8-866c-2bf975f9eb64",
    "_type": "visualization",
    "_source": {
      "title": "Total Premium / LoB",
      "visState": "{\"title\":\"Total Premium / LoB\",\"type\":\"pie\",\"params\":{\"addLegend\":true,\"addTooltip\":true,\"isDonut\":false,\"labels\":{\"last_level\":false,\"show\":true,\"truncate\":100,\"values\":true},\"legendPosition\":\"right\",\"type\":\"pie\"},\"aggs\":[{\"id\":\"1\",\"enabled\":true,\"type\":\"sum\",\"schema\":\"metric\",\"params\":{\"field\":\"Premium\",\"customLabel\":\"Total Premium\"}},{\"id\":\"2\",\"enabled\":true,\"type\":\"terms\",\"schema\":\"split\",\"params\":{\"field\":\"Line of Business (LoB)\",\"otherBucket\":false,\"otherBucketLabel\":\"Other\",\"missingBucket\":true,\"missingBucketLabel\":\"Missing\",\"size\":20,\"order\":\"desc\",\"orderBy\":\"1\",\"customLabel\":\"Total Premium / LoB\",\"row\":true}}]}",
      "uiStateJSON": "{\"vis\":{\"legendOpen\":false},\"spy\":{\"mode\":{\"name\":\"request\"}}}",
      "description": "",
      "version": 1,
      "kibanaSavedObjectMeta": {
        "searchSourceJSON": "{\"index\":\"f484e460-88dd-11e8-b0ed-f10d996b1a23\",\"filter\":[],\"query\":{\"query\":\"\",\"language\":\"lucene\"}}"
      }
    },
    "_meta": {
      "savedObjectVersion": 2
    }
  },
  {
    "_id": "9a92a330-88f0-11e8-b0ed-f10d996b1a23",
    "_type": "visualization",
    "_source": {
      "title": "No. of Offers / Industry",
      "visState": "{\"aggs\":[{\"enabled\":true,\"id\":\"1\",\"params\":{},\"schema\":\"metric\",\"type\":\"count\"},{\"enabled\":true,\"id\":\"2\",\"params\":{\"field\":\"Industry Category*\",\"missingBucket\":false,\"missingBucketLabel\":\"Missing\",\"order\":\"desc\",\"orderBy\":\"1\",\"otherBucket\":false,\"otherBucketLabel\":\"Other\",\"size\":100},\"schema\":\"segment\",\"type\":\"terms\"}],\"params\":{\"addLegend\":true,\"addTooltip\":true,\"isDonut\":false,\"labels\":{\"last_level\":true,\"show\":true,\"truncate\":100,\"values\":true},\"legendPosition\":\"right\",\"type\":\"pie\"},\"title\":\"No. of Offers / Industry\",\"type\":\"pie\"}",
      "uiStateJSON": "{\"vis\":{\"legendOpen\":false}}",
      "description": "",
      "version": 1,
      "kibanaSavedObjectMeta": {
        "searchSourceJSON": "{\"index\":\"f484e460-88dd-11e8-b0ed-f10d996b1a23\",\"filter\":[],\"query\":{\"language\":\"lucene\",\"query\":\"\"}}"
      }
    },
    "_meta": {
      "savedObjectVersion": 2
    }
  },
  {
    "_id": "e952e560-88f1-11e8-b0ed-f10d996b1a23",
    "_type": "visualization",
    "_source": {
      "title": "No. of Offers / LoB - thereof Fronting / Int. Program",
      "visState": "{\"aggs\":[{\"enabled\":true,\"id\":\"1\",\"params\":{},\"schema\":\"metric\",\"type\":\"count\"},{\"enabled\":true,\"id\":\"2\",\"params\":{\"field\":\"Industry Category*\",\"missingBucket\":false,\"missingBucketLabel\":\"Missing\",\"order\":\"desc\",\"orderBy\":\"1\",\"otherBucket\":false,\"otherBucketLabel\":\"Other\",\"size\":100},\"schema\":\"segment\",\"type\":\"terms\"}],\"params\":{\"addLegend\":true,\"addTooltip\":true,\"isDonut\":false,\"labels\":{\"last_level\":true,\"show\":true,\"truncate\":100,\"values\":true},\"legendPosition\":\"right\",\"type\":\"pie\"},\"title\":\"No. of Offers / LoB - thereof Fronting / Int. Program\",\"type\":\"pie\"}",
      "uiStateJSON": "{\"vis\":{\"legendOpen\":false}}",
      "description": "",
      "version": 1,
      "kibanaSavedObjectMeta": {
        "searchSourceJSON": "{\"index\":\"f484e460-88dd-11e8-b0ed-f10d996b1a23\",\"filter\":[],\"query\":{\"language\":\"lucene\",\"query\":\"\"}}"
      }
    },
    "_meta": {
      "savedObjectVersion": 2
    }
  }
]