<?xml version="1.0" encoding="utf-8"?>
<!-- Generator: Adobe Illustrator 22.1.0, SVG Export Plug-In . SVG Version: 6.00 Build 0)  -->
<svg version="1.1" id="Logo" xmlns="http://www.w3.org/2000/svg" xmlns:xlink="http://www.w3.org/1999/xlink" x="0px" y="0px"
	 viewBox="0 0 438.6 232.6" style="enable-background:new 0 0 438.6 232.6;" xml:space="preserve">
<style type="text/css">
	.st0{fill:#FEBD10;}
	.st1{fill:#795AA6;}
	.st2{fill:#5E6AB2;}
	.st3{fill:#24B252;}
	.st4{fill:#F5833C;}
	.st5{fill:#4B8B8A;}
	.st6{fill:#547DBF;}
	.st7{fill:#EF4435;}
	.st8{fill:#FFFFFF;}
</style>
<g>
	<g>
		<g>
			<g transform="matrix(1 0 0 1 0 0)">
				<path class="st0" d="M124.6,70.4c-3.7-5.7-8.1-10.3-13.2-13.8c-6.4-4.3-13.1-6.4-20.3-6.2c-3.5,0.1-6.9,0.7-10.4,1.9
					c-3.8,1.3-7.5,3.3-11.1,5.8c-3.8,2.7-7.6,6.2-11.3,10.6c-3.9,4.7-7.5,10-10.7,16c3.5-3.1,7.1-5.9,10.7-8.4
					c3.4-2.3,6.8-4.3,10.2-6c3.2-1.5,6.4-2.8,9.7-3.8c3-0.9,5.9-1.5,8.9-1.9c6.7-0.8,12.9-0.2,18.7,1.8c5.1,1.9,9.6,4.7,13.5,8.5
					c3.5,3.4,6.6,7.5,9.1,12.5c2.3,4.5,4,9.6,5.4,15.3c0.1-5.5-0.5-10.9-2-16.4C130.2,80.7,127.8,75.3,124.6,70.4z"/>
			</g>
			<g transform="matrix(1 0 0 1 0 0)">
				<path class="st1" d="M103.2,37.5c8.5,4.7,15.5,10.9,20.8,18.5c4.4,6.2,7.6,13.2,9.7,20.9c1.9,6.9,2.8,14.2,2.7,21.9
					c0,7.4-1,15.2-2.9,23.3c2.8-6.1,4.7-13.2,5.6-21.2c0.9-8.2,0.7-16.4-0.5-24.4c-1.6-9.8-4.7-17.9-9.2-24.4
					C123.1,43.2,114.3,38.3,103.2,37.5z"/>
			</g>
			<g transform="matrix(1 0 0 1 0 0)">
				<path class="st2" d="M139.5,62.1c2.1,7.7,3.4,15.5,3.7,23.4c0.3,6.9-0.2,13.7-1.4,20.3c-1.2,6.5-3,12.7-5.6,18.7
					c-2.8,6.5-6.3,12.6-10.7,18.3l1.8-1.4c3.9-3.3,7.4-8,10.5-14.2c3-5.8,5.2-12.1,6.8-18.9c1.7-7.5,2.3-14.7,1.8-21.6
					C145.8,78,143.5,69.8,139.5,62.1z"/>
			</g>
			<g transform="matrix(1 0 0 1 0 0)">
				<path class="st3" d="M143.1,130.1c1.6-3.9,2.9-8,3.8-12.5c1-5,1.6-10.3,1.7-15.8c-0.8,4.9-1.9,9.5-3.1,13.9
					c-1.2,4.2-2.7,8.2-4.4,12c-1.8,3.9-3.8,7.3-5.8,10.3c-2.2,3.3-4.7,6.2-7.4,8.7c-1.3,1.1-2.5,2.1-3.7,3c-1.5,1.1-2.9,1.9-4.2,2.6
					c-1.5,0.8-3,1.5-4.6,2.1c-1.8,0.6-3.5,1.1-5.2,1.5c1.5,0.7,3.2,1.1,5.1,1.1c1.7-0.1,3.5-0.5,5.3-1.1c1.7-0.6,3.4-1.5,5.1-2.7
					c1.8-1.2,3.4-2.5,4.8-4c2.4-2.3,4.7-5.1,7-8.4C139.8,137.3,141.6,133.8,143.1,130.1z"/>
			</g>
			<g transform="matrix(1 0 0 1 0 0)">
				<path class="st4" d="M93.1,151.7c0.6,5.6,2.5,10.2,5.5,13.7c2.7,3,5.9,4.7,9.6,5.3c3.4,0.5,6.8-0.1,10.4-1.7
					c3.4-1.5,6.6-3.8,9.7-7.1c1.2-1.2,2.4-2.7,3.6-4.4c1.2-1.6,2.3-3.3,3.4-5.2c1.2-2,2.2-4,3.2-6c1.2-2.6,2.2-4.9,3-7.1
					c-1,1.8-1.9,3.3-2.6,4.4c-0.9,1.4-1.7,2.8-2.7,4.1c-1,1.4-2,2.6-2.8,3.6c-0.9,1.1-1.9,2.2-3,3.3c-2.7,2.8-5.5,4.9-8.2,6.3
					c-3,1.7-6.1,2.7-9.1,2.9c-3.4,0.2-6.7-0.6-9.9-2.3C99.5,159.6,96.1,156.3,93.1,151.7z"/>
			</g>
			<g transform="matrix(1 0 0 1 0 0)">
				<path class="st5" d="M86.8,182.8c2.1,2.2,4.6,3.7,7.3,4.5c2.8,0.7,5.8,0.6,9-0.3c6-1.7,12.4-6.3,19.1-13.6
					c-4.8,3.5-9.4,5.5-13.9,6.2c-5,0.7-9.4-0.4-13.1-3.4c-4.3-3.5-7.3-9-8.9-16.7c-1.8-9-1.5-19.6,0.9-31.7
					c-2.7,4.9-4.7,10.2-6.1,15.9c-1.3,5.4-1.9,10.8-1.8,16.1c0.1,4.9,0.8,9.4,2.2,13.4C82.7,177.1,84.5,180.3,86.8,182.8z"/>
			</g>
			<g transform="matrix(1 0 0 1 0 0)">
				<path class="st6" d="M100.3,97.3l-3.2,1c-4.2,1.5-8.4,4.1-12.6,7.7c-4.1,3.6-8.1,7.9-11.7,13.1c-3.9,5.6-7.1,11.5-9.7,17.8
					c-2.7,6.5-4.4,12.9-5.4,19.3c-1,6.4-1,12.3,0,17.5c1,5.4,3,9.9,6,13.4c2.7,3.3,6.1,5.5,10.2,6.8c4.2,1.3,9,1.5,14.4,0.5
					c-6.2-1.9-11-6-14.3-12.2c-3.7-6.9-5.2-15.5-4.5-25.6c0.8-10.8,4.1-21.7,9.7-32.5C84.7,113.4,91.7,104.5,100.3,97.3z"/>
			</g>
			<g transform="matrix(1 0 0 1 0 0)">
				<path class="st7" d="M115.3,87.7c1.9,0.6,3.8,1.3,5.7,2.3c-1.6-2.3-3.4-4.3-5.6-6c-2.3-1.8-4.7-3.2-7.5-4.2
					c-2.9-1.1-6-1.7-9.5-2c-3.6-0.3-7.3,0-11.2,0.9c-7.3,1.6-14.4,4.8-21.1,9.6c-7.9,5.8-14.4,13-19.4,21.7
					c-5.7,9.8-8.9,20.2-9.5,31.3c-0.6,11.4,1.6,22,6.7,31.8c-0.5-9.5,0.7-19.1,3.4-29c2.7-9.6,6.7-18.6,12-26.9
					c5-7.8,10.8-14.2,17.3-19.4c5.9-4.7,12.1-8,18.5-9.8c2.5-0.7,4.9-1.2,7.3-1.4c2.2-0.2,4.5-0.2,6.8,0
					C111.1,86.8,113.2,87.1,115.3,87.7z"/>
			</g>
		</g>
	</g>
	<g>
		<path class="st8" d="M185.3,107.2c1.6,1,2.8,2.4,3.6,4.2V106h8.9v29.2c0,2.7-0.5,5.2-1.6,7.4c-1.1,2.2-2.7,3.9-4.8,5.2
			c-2.2,1.3-4.9,1.9-8.1,1.9c-4.4,0-7.9-1-10.6-3.1c-2.6-2.1-4.2-4.9-4.8-8.5h8.9c0.3,1.2,0.9,2.1,1.9,2.8c1,0.7,2.3,1,3.9,1
			c1.9,0,3.4-0.5,4.5-1.6c1.1-1.1,1.7-2.8,1.7-5.1v-5.2c-0.8,1.8-2,3.1-3.6,4.2c-1.6,1-3.5,1.5-5.8,1.5c-2.4,0-4.6-0.6-6.5-1.8
			c-1.9-1.2-3.4-3-4.5-5.2c-1.1-2.3-1.7-4.9-1.7-8c0-3.1,0.6-5.8,1.7-8c1.1-2.3,2.6-4,4.5-5.2c1.9-1.2,4.1-1.8,6.5-1.8
			C181.7,105.7,183.7,106.2,185.3,107.2z M177.7,115.4c-1.2,1.3-1.8,3-1.8,5.3s0.6,4,1.8,5.3c1.2,1.3,2.7,1.9,4.7,1.9
			c1.9,0,3.4-0.6,4.7-1.9c1.2-1.3,1.8-3,1.8-5.2c0-2.2-0.6-4-1.8-5.2c-1.2-1.3-2.8-1.9-4.7-1.9C180.5,113.6,178.9,114.2,177.7,115.4
			z"/>
		<path class="st8" d="M241,135.4l-7.8-11.6l-6.7,11.6h-10.3l11.9-19.1l-12.3-18h10.7l7.6,11.2l6.6-11.2h10.3l-11.7,18.7l12.5,18.5
			H241z"/>
		<path class="st8" d="M281.3,107.5c1.9,1.2,3.4,2.9,4.5,5.2c1.1,2.3,1.7,4.9,1.7,8c0,3-0.6,5.7-1.7,8c-1.1,2.3-2.6,4-4.5,5.2
			c-1.9,1.2-4.1,1.8-6.5,1.8c-2.2,0-4.2-0.5-5.8-1.5c-1.6-1-2.8-2.4-3.5-4.2v16.4h-9V106h9v5.3c0.7-1.8,1.9-3.1,3.5-4.2
			c1.6-1,3.5-1.5,5.8-1.5C277.2,105.7,279.4,106.3,281.3,107.5z M267.2,115.5c-1.2,1.3-1.8,3-1.8,5.2c0,2.2,0.6,3.9,1.8,5.2
			c1.2,1.3,2.8,1.9,4.7,1.9c1.9,0,3.5-0.6,4.7-1.9c1.2-1.3,1.8-3,1.8-5.3s-0.6-4-1.8-5.3c-1.2-1.3-2.7-1.9-4.7-1.9
			C270,113.6,268.4,114.2,267.2,115.5z"/>
		<path class="st8" d="M321,122.3h-20.3c0.1,2.2,0.7,3.8,1.7,4.8c1,1,2.3,1.4,3.9,1.4c1.3,0,2.4-0.3,3.3-1c0.9-0.7,1.5-1.5,1.7-2.6
			h9.5c-0.4,2.1-1.2,3.9-2.5,5.5c-1.3,1.6-2.9,2.9-4.9,3.8c-2,0.9-4.2,1.4-6.7,1.4c-2.9,0-5.4-0.6-7.6-1.8c-2.2-1.2-4-3-5.2-5.2
			c-1.3-2.3-1.9-4.9-1.9-8c0-3.1,0.6-5.8,1.9-8s3-4,5.2-5.2c2.2-1.2,4.8-1.8,7.7-1.8c2.9,0,5.5,0.6,7.7,1.8c2.2,1.2,3.9,2.9,5.1,5
			c1.2,2.2,1.8,4.6,1.8,7.4C321.3,120.7,321.2,121.5,321,122.3z M310.7,114.2c-1.1-1-2.4-1.4-4-1.4c-1.6,0-3,0.5-4.1,1.5
			c-1.1,1-1.7,2.4-1.8,4.3h11.5C312.2,116.6,311.7,115.2,310.7,114.2z"/>
		<path class="st8" d="M340.6,107.3c1.8-1.1,3.7-1.6,5.8-1.6v9.6h-2.6c-2.4,0-4.2,0.5-5.5,1.5c-1.3,1-2,2.7-2,5.2v13.4h-9V106h9v5.5
			C337.4,109.8,338.9,108.3,340.6,107.3z"/>
		<path class="st8" d="M369.1,127.6v7.7h-4c-3.4,0-6.1-0.8-8-2.5c-1.9-1.7-2.9-4.5-2.9-8.4v-10.8h-3.9V106h3.9v-7.8h9v7.8h5.9v7.6
			h-5.9v10.9c0,1.2,0.2,2,0.7,2.4c0.5,0.5,1.3,0.7,2.4,0.7H369.1z"/>
		<path class="st8" d="M395.1,108.5c2.2,1.9,3.6,4.3,4.2,7.4h-8.4c-0.2-1.2-0.8-2.1-1.7-2.8s-1.9-1-3.2-1c-1,0-1.8,0.2-2.3,0.7
			c-0.5,0.4-0.8,1.1-0.8,1.9c0,0.9,0.5,1.6,1.4,2.1c1,0.5,2.5,0.9,4.5,1.4c2.2,0.5,4.1,1.1,5.5,1.6c1.4,0.5,2.7,1.4,3.7,2.7
			s1.6,2.9,1.6,4.9c0,1.7-0.5,3.2-1.4,4.5c-0.9,1.3-2.2,2.3-3.9,3c-1.7,0.7-3.8,1.1-6.1,1.1c-4,0-7.1-0.9-9.5-2.6
			c-2.4-1.8-3.8-4.3-4.4-7.5h8.7c0.1,1.3,0.7,2.2,1.6,2.9c0.9,0.7,2.1,1,3.6,1c1,0,1.8-0.2,2.3-0.7c0.5-0.5,0.8-1.1,0.8-1.9
			c0-1-0.5-1.7-1.4-2.2c-1-0.4-2.5-0.9-4.7-1.4c-2.2-0.5-4-0.9-5.4-1.5c-1.4-0.5-2.6-1.4-3.6-2.5c-1-1.2-1.5-2.8-1.5-4.8
			c0-2.6,1-4.8,3-6.4c2-1.6,4.8-2.4,8.5-2.4C389.9,105.7,392.9,106.6,395.1,108.5z"/>
		<path class="st8" d="M212.9,114.1h-5.1c-1.8,0-3.3,1.5-3.3,3.3s1.5,3.3,3.3,3.3h5.1c1.8,0,3.3-1.5,3.3-3.3
			S214.8,114.1,212.9,114.1z"/>
	</g>
	<g>
		<path class="st8" d="M222,160.9c-0.2,0.4-0.5,0.7-1,0.9s-1,0.3-1.6,0.3c-0.6,0-1.2-0.1-1.6-0.3s-0.9-0.5-1.2-0.9
			c-0.3-0.4-0.5-0.8-0.5-1.3h1.5c0,0.4,0.2,0.7,0.5,1s0.7,0.4,1.2,0.4c0.4,0,0.8-0.1,1-0.4c0.2-0.2,0.4-0.5,0.4-0.9
			c0-0.3-0.1-0.6-0.3-0.8c-0.2-0.2-0.4-0.4-0.7-0.5c-0.3-0.1-0.6-0.3-1.1-0.4c-0.6-0.2-1-0.4-1.4-0.5c-0.4-0.2-0.6-0.4-0.9-0.8
			c-0.2-0.3-0.4-0.8-0.4-1.3c0-0.5,0.1-0.9,0.4-1.3c0.2-0.4,0.6-0.6,1-0.8c0.4-0.2,0.9-0.3,1.5-0.3c0.9,0,1.6,0.2,2.2,0.7
			c0.5,0.4,0.8,1,0.9,1.7h-1.6c-0.1-0.3-0.2-0.6-0.5-0.9c-0.3-0.2-0.6-0.4-1.1-0.4c-0.4,0-0.7,0.1-1,0.3c-0.2,0.2-0.4,0.5-0.4,0.9
			c0,0.3,0.1,0.6,0.3,0.8c0.2,0.2,0.4,0.4,0.6,0.5c0.3,0.1,0.6,0.2,1.1,0.4c0.6,0.2,1,0.4,1.4,0.5c0.4,0.2,0.7,0.4,0.9,0.8
			c0.2,0.3,0.4,0.8,0.4,1.4C222.3,160.2,222.2,160.6,222,160.9z"/>
		<path class="st8" d="M231.4,153.6c0.7,0.4,1.2,0.9,1.6,1.6c0.4,0.7,0.6,1.5,0.6,2.4c0,0.9-0.2,1.7-0.6,2.4
			c-0.4,0.7-0.9,1.2-1.6,1.6c-0.7,0.4-1.4,0.6-2.2,0.6c-0.8,0-1.6-0.2-2.3-0.6c-0.7-0.4-1.2-0.9-1.6-1.6c-0.4-0.7-0.6-1.5-0.6-2.4
			c0-0.9,0.2-1.7,0.6-2.4c0.4-0.7,0.9-1.2,1.6-1.6c0.7-0.4,1.4-0.6,2.3-0.6C230,153,230.7,153.2,231.4,153.6z M227.6,154.8
			c-0.4,0.3-0.8,0.6-1,1.1c-0.2,0.5-0.4,1.1-0.4,1.7c0,0.7,0.1,1.2,0.4,1.7c0.2,0.5,0.6,0.9,1,1.1c0.4,0.3,1,0.4,1.5,0.4
			c0.6,0,1.1-0.1,1.5-0.4c0.4-0.3,0.8-0.6,1-1.1c0.2-0.5,0.4-1.1,0.4-1.7c0-0.6-0.1-1.2-0.4-1.7c-0.2-0.5-0.6-0.9-1-1.1
			c-0.4-0.3-0.9-0.4-1.5-0.4C228.6,154.4,228.1,154.5,227.6,154.8z"/>
		<path class="st8" d="M241.6,153.2v1.2h-3.8v2.8h3.2v1.1h-3.2v3.9h-1.4v-8.9H241.6z"/>
		<path class="st8" d="M249.9,153.2v1.2h-2.5v7.8h-1.5v-7.8h-2.5v-1.2H249.9z"/>
		<path class="st8" d="M263.5,153.2l-2.2,8.9h-1.8l-1.9-6.9l-1.9,6.9H254l-2.2-8.9h1.6l1.5,7.3l2-7.3h1.6l2,7.3l1.5-7.3H263.5z"/>
		<path class="st8" d="M271.4,160.2h-3.8l-0.7,1.9h-1.5l3.3-8.8h1.7l3.3,8.8h-1.5L271.4,160.2z M271,159l-1.5-4.2L268,159H271z"/>
		<path class="st8" d="M280.6,162.1l-2.2-3.6h-1v3.6H276v-8.9h3.2c1,0,1.8,0.2,2.3,0.7c0.5,0.5,0.8,1.2,0.8,2c0,0.7-0.2,1.3-0.6,1.7
			c-0.4,0.4-1,0.7-1.7,0.9l2.3,3.6H280.6z M277.4,157.5h1.6c1.2,0,1.7-0.5,1.7-1.5c0-0.5-0.1-0.9-0.4-1.1c-0.3-0.3-0.7-0.4-1.3-0.4
			h-1.6V157.5z"/>
		<path class="st8" d="M286.2,154.3v2.7h3.3v1.1h-3.3v2.8h3.7v1.2h-5.1v-8.9h5.1v1.2H286.2z"/>
		<path class="st8" d="M303,162.1l-1.7-1.9c0,0.1-0.1,0.2-0.1,0.4c-0.1,0.5-0.4,0.8-0.8,1.1c-0.4,0.3-0.9,0.4-1.4,0.4
			c-0.5,0-1-0.1-1.4-0.3c-0.4-0.2-0.7-0.5-1-0.9c-0.2-0.4-0.3-0.9-0.3-1.4c0-0.5,0.1-1,0.3-1.4c0.2-0.4,0.5-0.7,0.8-0.9
			c0.4-0.2,0.7-0.3,1.2-0.3h0.1l-0.2-0.2c-0.2-0.3-0.4-0.5-0.5-0.8c-0.1-0.2-0.2-0.5-0.2-0.8c0-0.4,0.1-0.7,0.3-1
			c0.2-0.3,0.5-0.6,0.8-0.8c0.4-0.2,0.8-0.3,1.3-0.3c0.7,0,1.3,0.2,1.7,0.5c0.4,0.4,0.6,0.8,0.7,1.3c0.1,0.3,0.1,0.6,0.1,0.9h-1.4
			v-0.1c0-0.1,0-0.2,0-0.3c0-0.4-0.1-0.6-0.3-0.8c-0.2-0.2-0.5-0.3-0.8-0.3c-0.3,0-0.6,0.1-0.8,0.3c-0.2,0.2-0.3,0.4-0.3,0.7
			c0,0.2,0,0.4,0.1,0.6c0.1,0.2,0.2,0.4,0.4,0.6l4.7,5.7H303z M300.1,160.6c0.3-0.3,0.4-0.6,0.4-1c0-0.3-0.1-0.5-0.2-0.8
			c-0.1-0.2-0.3-0.4-0.6-0.5c-0.2-0.1-0.5-0.2-0.8-0.2c-0.4,0-0.7,0.1-1,0.4c-0.3,0.2-0.4,0.6-0.4,1.1c0,0.5,0.1,0.8,0.4,1.1
			c0.3,0.3,0.6,0.4,1.1,0.4C299.5,161,299.8,160.8,300.1,160.6z"/>
		<path class="st8" d="M317.7,153.9c0.7,0.6,1.2,1.3,1.5,2.3h-1.5c-0.2-0.5-0.5-1-1-1.3c-0.5-0.3-1-0.5-1.7-0.5
			c-0.5,0-1,0.1-1.4,0.4c-0.4,0.3-0.7,0.6-1,1.1c-0.2,0.5-0.4,1.1-0.4,1.7c0,0.6,0.1,1.2,0.4,1.7c0.2,0.5,0.6,0.9,1,1.1
			c0.4,0.3,0.9,0.4,1.4,0.4c0.7,0,1.2-0.2,1.7-0.5c0.5-0.3,0.8-0.7,1-1.3h1.5c-0.3,1-0.7,1.7-1.5,2.3c-0.7,0.6-1.6,0.8-2.7,0.8
			c-0.8,0-1.6-0.2-2.2-0.6c-0.6-0.4-1.2-0.9-1.5-1.6c-0.4-0.7-0.5-1.5-0.5-2.4c0-0.9,0.2-1.7,0.5-2.4c0.4-0.7,0.9-1.2,1.5-1.6
			c0.6-0.4,1.4-0.6,2.2-0.6C316,153.1,316.9,153.4,317.7,153.9z"/>
		<path class="st8" d="M328.2,153.6c0.7,0.4,1.2,0.9,1.6,1.6c0.4,0.7,0.6,1.5,0.6,2.4c0,0.9-0.2,1.7-0.6,2.4
			c-0.4,0.7-0.9,1.2-1.6,1.6c-0.7,0.4-1.4,0.6-2.2,0.6c-0.8,0-1.6-0.2-2.3-0.6c-0.7-0.4-1.2-0.9-1.6-1.6c-0.4-0.7-0.6-1.5-0.6-2.4
			c0-0.9,0.2-1.7,0.6-2.4c0.4-0.7,0.9-1.2,1.6-1.6c0.7-0.4,1.4-0.6,2.3-0.6C326.8,153,327.6,153.2,328.2,153.6z M324.4,154.8
			c-0.4,0.3-0.8,0.6-1,1.1c-0.2,0.5-0.4,1.1-0.4,1.7c0,0.7,0.1,1.2,0.4,1.7c0.2,0.5,0.6,0.9,1,1.1c0.4,0.3,1,0.4,1.5,0.4
			c0.6,0,1.1-0.1,1.5-0.4c0.4-0.3,0.8-0.6,1-1.1c0.2-0.5,0.4-1.1,0.4-1.7c0-0.6-0.1-1.2-0.4-1.7c-0.2-0.5-0.6-0.9-1-1.1
			c-0.4-0.3-0.9-0.4-1.5-0.4C325.4,154.4,324.9,154.5,324.4,154.8z"/>
		<path class="st8" d="M340.3,162.1h-1.4l-4.3-6.6v6.6h-1.4v-8.9h1.4l4.3,6.6v-6.6h1.4V162.1z"/>
		<path class="st8" d="M348.9,160.9c-0.2,0.4-0.5,0.7-1,0.9s-1,0.3-1.6,0.3c-0.6,0-1.2-0.1-1.6-0.3c-0.5-0.2-0.9-0.5-1.2-0.9
			c-0.3-0.4-0.5-0.8-0.5-1.3h1.5c0,0.4,0.2,0.7,0.5,1c0.3,0.3,0.7,0.4,1.2,0.4c0.4,0,0.8-0.1,1-0.4c0.2-0.2,0.4-0.5,0.4-0.9
			c0-0.3-0.1-0.6-0.3-0.8c-0.2-0.2-0.4-0.4-0.7-0.5c-0.3-0.1-0.6-0.3-1.1-0.4c-0.6-0.2-1-0.4-1.4-0.5c-0.4-0.2-0.6-0.4-0.9-0.8
			c-0.2-0.3-0.4-0.8-0.4-1.3c0-0.5,0.1-0.9,0.4-1.3c0.2-0.4,0.6-0.6,1-0.8c0.4-0.2,0.9-0.3,1.5-0.3c0.9,0,1.6,0.2,2.2,0.7
			c0.5,0.4,0.8,1,0.9,1.7h-1.6c-0.1-0.3-0.2-0.6-0.5-0.9c-0.3-0.2-0.6-0.4-1.1-0.4c-0.4,0-0.7,0.1-1,0.3c-0.2,0.2-0.4,0.5-0.4,0.9
			c0,0.3,0.1,0.6,0.3,0.8c0.2,0.2,0.4,0.4,0.6,0.5c0.3,0.1,0.6,0.2,1.1,0.4c0.6,0.2,1,0.4,1.4,0.5c0.4,0.2,0.7,0.4,0.9,0.8
			c0.2,0.3,0.4,0.8,0.4,1.4C349.2,160.2,349.1,160.6,348.9,160.9z"/>
		<path class="st8" d="M353.3,153.2v5.3c0,0.8,0.2,1.4,0.5,1.8c0.3,0.4,0.8,0.6,1.5,0.6c0.6,0,1.1-0.2,1.5-0.6
			c0.3-0.4,0.5-1,0.5-1.8v-5.3h1.4v5.3c0,1.2-0.3,2.1-0.9,2.8c-0.6,0.6-1.5,0.9-2.5,0.9c-1,0-1.9-0.3-2.5-0.9
			c-0.6-0.6-0.9-1.6-0.9-2.8v-5.3H353.3z"/>
		<path class="st8" d="M363.1,161h3.1v1.1h-4.5v-8.9h1.4V161z"/>
		<path class="st8" d="M374.3,153.2v1.2h-2.5v7.8h-1.5v-7.8h-2.5v-1.2H374.3z"/>
		<path class="st8" d="M378.1,153.2v8.9h-1.4v-8.9H378.1z"/>
		<path class="st8" d="M388.4,162.1h-1.4l-4.3-6.6v6.6h-1.4v-8.9h1.4l4.3,6.6v-6.6h1.4V162.1z"/>
		<path class="st8" d="M398.1,153.9c0.7,0.5,1.2,1.2,1.4,2.1H398c-0.2-0.5-0.5-0.9-1-1.2c-0.4-0.3-1-0.4-1.6-0.4
			c-0.6,0-1.1,0.1-1.5,0.4c-0.4,0.3-0.8,0.6-1,1.1c-0.2,0.5-0.4,1-0.4,1.7c0,0.7,0.1,1.3,0.4,1.8c0.3,0.5,0.6,0.9,1.1,1.1
			c0.5,0.3,1,0.4,1.6,0.4c0.7,0,1.4-0.2,1.9-0.7c0.5-0.5,0.9-1.1,1-1.9h-3.3v-1.1h4.5v1.4c-0.1,0.7-0.3,1.3-0.7,1.8
			c-0.4,0.5-0.9,1-1.5,1.3c-0.6,0.3-1.3,0.5-2.1,0.5c-0.9,0-1.6-0.2-2.3-0.6c-0.7-0.4-1.2-0.9-1.5-1.6c-0.4-0.7-0.5-1.5-0.5-2.4
			c0-0.9,0.2-1.7,0.5-2.4c0.4-0.7,0.9-1.2,1.5-1.6c0.7-0.4,1.4-0.6,2.3-0.6C396.5,153.1,397.4,153.3,398.1,153.9z"/>
	</g>
</g>
</svg>
